{
  "project_info": {
    "project_number": "1026713808437",
    "firebase_url": "https://coffeeshop-4509e.firebaseio.com",
    "project_id": "coffeeshop-4509e",
    "storage_bucket": "coffeeshop-4509e.appspot.com"
  },
  "client": [
    {
      "client_info": {
        "mobilesdk_app_id": "1:1026713808437:android:4058a64f23ef908eb28b7c",
        "android_client_info": {
          "package_name": "com.example.crosstechproject"
        }
      },
      "oauth_client": [
        {
          "client_id": "1026713808437-ogp35j34mdgkb9fu6n9fla4jlu8r40ni.apps.googleusercontent.com",
          "client_type": 3
        }
      ],
      "api_key": [
        {
          "current_key": "AIzaSyDH9WpCXDGMAjduSvibMpAtHLpT0bIyYU8"
        }
      ],
      "services": {
        "appinvite_service": {
          "other_platform_oauth_client": [
            {
              "client_id": "1026713808437-ogp35j34mdgkb9fu6n9fla4jlu8r40ni.apps.googleusercontent.com",
              "client_type": 3
            }
          ]
        }
      }
    }
  ],
  "configuration_version": "1"
}